<svg width="186" height="106" viewBox="0 0 186 106" fill="none" xmlns="http://www.w3.org/2000/svg">
<path d="M21.9336 25.6915L21.5874 31.0626H11.246V0H0V4.44231L3.89757 5.20321V31.5438L0 32.2935V36.7134H27.551V25.7027H21.9336V25.6915Z" fill="#4F4F4F"/>
<path d="M54.0969 25.2551V21.2492C54.0969 18.6532 53.6614 16.4264 52.7791 14.6025C51.908 12.7674 50.6349 11.3687 48.9597 10.3952C47.2734 9.41048 45.2185 8.92932 42.7393 8.92932C40.2488 8.90694 38.0711 9.5 36.2284 10.7085C34.3969 11.917 32.9786 13.5507 31.9735 15.6543C30.9572 17.7468 30.4547 20.1414 30.4547 22.8381V23.8564C30.4547 26.4412 30.9907 28.7463 32.0516 30.7604C33.1238 32.7746 34.6202 34.3523 36.5746 35.5049C38.529 36.6686 40.7961 37.2393 43.387 37.2393C45.587 37.2393 47.5303 36.9371 49.2389 36.3441C50.9476 35.7398 52.3548 34.9901 53.4827 34.095L51.4837 29.5519C50.378 30.2233 49.2501 30.738 48.0775 31.0849C46.9049 31.4318 45.6652 31.5997 44.3139 31.5997C43.0296 31.5997 41.9352 31.3311 41.0306 30.8052C40.1148 30.2793 39.4112 29.5408 38.9199 28.6232C38.4285 27.6833 38.1269 26.6202 38.0264 25.4341L38.0711 25.2775H54.0969V25.2551ZM38.8305 17.2433C39.2102 16.3481 39.7351 15.6431 40.4052 15.1284C41.0753 14.6249 41.9017 14.3675 42.8621 14.3675C43.8895 14.3675 44.7271 14.5801 45.3637 15.0165C46.0114 15.4529 46.4805 16.0795 46.782 16.874C47.0724 17.6797 47.2176 18.6308 47.2176 19.7386V20.3876H38.1381L38.0599 20.2645C38.194 19.1455 38.4508 18.1384 38.8305 17.2433Z" fill="#4F4F4F"/>
<path d="M92.7375 68.5368L92.3802 73.9078H82.0388V42.8452H70.804V47.2875L74.7015 48.0484V74.389L70.804 75.1387V79.5586H98.3549V68.5479H92.7375V68.5368Z" fill="#4F4F4F"/>
<path d="M124.744 74.7362C124.689 74.4005 124.666 74.0536 124.655 73.6956C124.644 73.3263 124.644 72.957 124.644 72.5878V61.3533C124.644 58.2762 123.605 55.9151 121.55 54.2591C119.484 52.603 116.681 51.7861 113.13 51.7861C111.075 51.7861 109.221 52.0323 107.557 52.547C105.893 53.0506 104.363 53.6996 102.934 54.5164L103.034 61.5883H108.317L108.897 57.9852C109.4 57.6383 109.969 57.3586 110.595 57.1684C111.231 56.9782 111.946 56.8774 112.728 56.8774C114.258 56.8774 115.397 57.2915 116.168 58.1083C116.927 58.9252 117.307 59.9882 117.307 61.2862V63.3115H113.711C111.053 63.3115 108.808 63.6808 106.988 64.4193C105.167 65.169 103.794 66.1873 102.867 67.4741C101.929 68.7721 101.471 70.2603 101.471 71.9835C101.471 74.4788 102.264 76.4594 103.85 77.9253C105.447 79.3799 107.591 80.1073 110.293 80.1073C111.89 80.1073 113.275 79.7716 114.459 79.1114C115.643 78.44 116.67 77.556 117.541 76.4594C117.619 76.9965 117.753 77.5336 117.943 78.0707C118.122 78.6078 118.312 79.1226 118.502 79.5925H127.603V75.1726L124.744 74.7362ZM117.284 72.1178C116.782 72.8787 116.067 73.4941 115.14 73.9529C114.224 74.4229 113.242 74.6467 112.225 74.6467C111.142 74.6467 110.282 74.3893 109.679 73.8522C109.065 73.3263 108.763 72.5654 108.763 71.6031C108.763 70.5624 109.177 69.6673 110.014 68.9399C110.841 68.1902 112.069 67.821 113.666 67.821H117.284V72.1178Z" fill="#4F4F4F"/>
<path d="M155.289 58.5558C154.473 56.4074 153.312 54.7401 151.782 53.554C150.252 52.3679 148.376 51.7748 146.176 51.7748C144.646 51.7748 143.317 52.0657 142.166 52.6588C141.016 53.2519 140.044 54.0911 139.263 55.1765V40.2271H128.05V44.6694L131.948 45.4303V79.5588H138.291L138.816 76.2019C139.631 77.4664 140.625 78.4175 141.809 79.0889C143.004 79.7491 144.433 80.0847 146.109 80.0847C148.342 80.0847 150.23 79.5253 151.782 78.4175C153.323 77.3097 154.484 75.7543 155.3 73.7402C156.104 71.726 156.506 69.3762 156.506 66.6795V66.1424C156.483 63.2443 156.081 60.7042 155.289 58.5558ZM149.169 66.6795C149.169 69.1188 148.755 71.0211 147.929 72.3638C147.114 73.7066 145.762 74.3668 143.886 74.3668C142.859 74.3668 141.954 74.1542 141.184 73.7178C140.402 73.2814 139.754 72.6324 139.252 71.7932V60.3909C139.709 59.4957 140.324 58.7908 141.117 58.2648C141.909 57.7501 142.859 57.4816 143.953 57.4816C145.182 57.4816 146.176 57.8396 146.935 58.5446C147.706 59.2607 148.264 60.2566 148.621 61.5322C148.99 62.819 149.169 64.352 149.169 66.1312V66.6795Z" fill="#4F4F4F"/>
<path d="M184.47 58.4547C183.443 56.3734 181.98 54.7397 180.059 53.5536C178.149 52.3675 175.848 51.7744 173.146 51.7744C170.488 51.7744 168.187 52.3675 166.278 53.5536C164.346 54.7397 162.883 56.3734 161.855 58.4659C160.828 60.5695 160.325 62.9641 160.325 65.6608V66.1979C160.325 68.917 160.828 71.3228 161.855 73.4153C162.883 75.5078 164.357 77.1415 166.289 78.3164C168.221 79.4913 170.521 80.0843 173.202 80.0843C175.86 80.0843 178.16 79.4913 180.059 78.3164C181.98 77.1415 183.443 75.5078 184.47 73.4153C185.486 71.3116 186 68.917 186 66.1979V65.6608C186 62.9417 185.486 60.5359 184.47 58.4547ZM178.674 66.1979C178.674 67.8428 178.484 69.2751 178.093 70.5172C177.713 71.7592 177.11 72.7215 176.306 73.4041C175.502 74.0867 174.452 74.4335 173.191 74.4335C171.895 74.4335 170.845 74.0979 170.019 73.4153C169.192 72.7327 168.601 71.7704 168.221 70.5283C167.841 69.2863 167.651 67.8428 167.651 66.1979V65.6608C167.651 64.0495 167.841 62.6284 168.221 61.3864C168.601 60.1555 169.192 59.182 170.019 58.4994C170.845 57.7945 171.884 57.4476 173.135 57.4476C174.43 57.4476 175.48 57.7945 176.295 58.4994C177.11 59.1932 177.713 60.1667 178.093 61.3864C178.484 62.6284 178.674 64.0495 178.674 65.6608V66.1979Z" fill="#4F4F4F"/>
</svg>
